\beamer@endinputifotherversion {3.10pt}
\beamer@sectionintoc {1}{Introduction: comparison between this method and marking tree}{2}{0}{1}
\beamer@sectionintoc {2}{Petri nets \& labels}{3}{0}{2}
\beamer@sectionintoc {3}{CR and DP}{4}{0}{3}
\beamer@sectionintoc {4}{Diagnosabilty with this method}{5}{0}{4}
\beamer@sectionintoc {5}{Conclusion}{6}{0}{5}
