digraph G {

	P1 ;
	P2 ;
	P3 ;
	P4 [style = filled, color = red, height=0.1];
	T1 [shape = rect, label = "", height=0.1];
	T2 [shape = rect, label = "", height=0.1];
	T3 [shape = rect, label = "", height=0.1];
	T4 [shape = rect, label = "", height=0.1];	

	P1 -> T1;
	T1 -> P2;
	T1 -> P3;
	P3 -> T3;
	P2 -> T2;
	T2 -> P1;
	T3 -> P1;
	P2 -> T4;
	T4 -> P4;
}