digraph G {
	
	P1 ;
	P2 [style=filled,color=blue];
	P3 [style=filled,color=blue];
	P4 [style=filled,color=blue];
	T1 [shape = square];
	T2 [shape = square];	
	T3 [shape = square];
	T4 [shape = square, style=filled, color=red];

	subgraph a{
		 T1 -> P1 -> T2;
		 P1 -> T3;
		 T2 -> P2 -> T4;
		 T3 -> P3 -> T4;
		 T4 -> P4 -> T1;
		 label = "(Wpr + Wpo)*B4";
	}
	

}