\relax 
\providecommand\HyperFirstAtBeginDocument{\AtBeginDocument}
\HyperFirstAtBeginDocument{\ifx\hyper@anchor\@undefined
\global\let\oldcontentsline\contentsline
\gdef\contentsline#1#2#3#4{\oldcontentsline{#1}{#2}{#3}}
\global\let\oldnewlabel\newlabel
\gdef\newlabel#1#2{\newlabelxx{#1}#2}
\gdef\newlabelxx#1#2#3#4#5#6{\oldnewlabel{#1}{{#2}{#3}}}
\AtEndDocument{\ifx\hyper@anchor\@undefined
\let\contentsline\oldcontentsline
\let\newlabel\oldnewlabel
\fi}
\fi}
\global\let\hyper@last\relax 
\gdef\HyperFirstAtBeginDocument#1{#1}
\providecommand\HyField@AuxAddToFields[1]{}
\@writefile{toc}{\beamer@endinputifotherversion {3.10pt}}
\@writefile{nav}{\beamer@endinputifotherversion {3.10pt}}
\@writefile{nav}{\headcommand {\slideentry {0}{0}{1}{1/1}{}{0}}}
\@writefile{nav}{\headcommand {\beamer@framepages {1}{1}}}
\@writefile{nav}{\headcommand {\slideentry {0}{0}{2}{2/2}{}{0}}}
\@writefile{nav}{\headcommand {\beamer@framepages {2}{2}}}
\@writefile{toc}{\beamer@sectionintoc {1}{Introduction: diagnosis of DES with Petri Net}{3}{0}{1}}
\@writefile{nav}{\headcommand {\sectionentry {1}{Introduction: diagnosis of DES with Petri Net}{3}{Introduction: diagnosis of DES with Petri Net}{0}}}
\@writefile{nav}{\headcommand {\beamer@sectionpages {1}{2}}}
\@writefile{nav}{\headcommand {\beamer@subsectionpages {1}{2}}}
\@writefile{nav}{\headcommand {\slideentry {1}{0}{3}{3/3}{}{0}}}
\@writefile{nav}{\headcommand {\beamer@framepages {3}{3}}}
\@writefile{toc}{\beamer@subsectionintoc {1}{1}{Diagnosis of DES with Petri Net}{4}{0}{1}}
\@writefile{nav}{\headcommand {\beamer@subsectionentry {0}{1}{1}{4}{Diagnosis of DES with Petri Net}}\headcommand {\beamer@subsectionpages {3}{3}}}
\@writefile{nav}{\headcommand {\slideentry {1}{1}{1}{4/4}{Diagnosis of DES with Petri Net}{0}}}
\@writefile{nav}{\headcommand {\beamer@framepages {4}{4}}}
\@writefile{toc}{\beamer@sectionintoc {2}{Petri nets for DES}{5}{0}{2}}
\@writefile{nav}{\headcommand {\sectionentry {2}{Petri nets for DES}{5}{Petri nets for DES}{0}}}
\@writefile{nav}{\headcommand {\beamer@sectionpages {3}{4}}}
\@writefile{nav}{\headcommand {\beamer@subsectionpages {4}{4}}}
\@writefile{nav}{\headcommand {\slideentry {2}{0}{2}{5/5}{}{0}}}
\@writefile{nav}{\headcommand {\beamer@framepages {5}{5}}}
\@writefile{toc}{\beamer@subsectionintoc {2}{1}{Background notions}{6}{0}{2}}
\@writefile{nav}{\headcommand {\beamer@subsectionentry {0}{2}{1}{6}{Background notions}}\headcommand {\beamer@subsectionpages {5}{5}}}
\@writefile{nav}{\headcommand {\slideentry {2}{1}{1}{6/6}{Background notions}{0}}}
\@writefile{nav}{\headcommand {\beamer@framepages {6}{6}}}
\@writefile{toc}{\beamer@subsectionintoc {2}{2}{Example}{7}{0}{2}}
\@writefile{nav}{\headcommand {\beamer@subsectionentry {0}{2}{2}{7}{Example}}\headcommand {\beamer@subsectionpages {6}{6}}}
\@writefile{nav}{\headcommand {\slideentry {2}{2}{1}{7/7}{Example}{0}}}
\@writefile{nav}{\headcommand {\beamer@framepages {7}{7}}}
\@writefile{toc}{\beamer@subsectionintoc {2}{3}{Notions for sensibility analysis}{8}{0}{2}}
\@writefile{nav}{\headcommand {\beamer@subsectionentry {0}{2}{3}{8}{Notions for sensibility analysis}}\headcommand {\beamer@subsectionpages {7}{7}}}
\@writefile{nav}{\headcommand {\slideentry {2}{3}{1}{8/8}{Notions for sensibility analysis}{0}}}
\@writefile{nav}{\headcommand {\beamer@framepages {8}{8}}}
\@writefile{nav}{\headcommand {\slideentry {2}{3}{2}{9/9}{Notions for sensibility analysis}{0}}}
\@writefile{nav}{\headcommand {\beamer@framepages {9}{9}}}
\@writefile{nav}{\headcommand {\slideentry {2}{3}{3}{10/10}{Notions for sensibility analysis}{0}}}
\@writefile{nav}{\headcommand {\beamer@framepages {10}{10}}}
\@writefile{toc}{\beamer@sectionintoc {3}{Structural sensitivity }{11}{0}{3}}
\@writefile{nav}{\headcommand {\sectionentry {3}{Structural sensitivity }{11}{Structural sensitivity }{0}}}
\@writefile{nav}{\headcommand {\beamer@sectionpages {5}{10}}}
\@writefile{nav}{\headcommand {\beamer@subsectionpages {8}{10}}}
\@writefile{nav}{\headcommand {\slideentry {3}{0}{4}{11/11}{}{0}}}
\@writefile{nav}{\headcommand {\beamer@framepages {11}{11}}}
\@writefile{nav}{\headcommand {\slideentry {3}{0}{5}{12/12}{}{0}}}
\@writefile{nav}{\headcommand {\beamer@framepages {12}{12}}}
\@writefile{toc}{\beamer@subsectionintoc {3}{1}{Causality Relationship}{13}{0}{3}}
\@writefile{nav}{\headcommand {\beamer@subsectionentry {0}{3}{1}{13}{Causality Relationship}}\headcommand {\beamer@subsectionpages {11}{12}}}
\@writefile{nav}{\headcommand {\slideentry {3}{1}{1}{13/13}{Causality Relationship}{0}}}
\@writefile{nav}{\headcommand {\beamer@framepages {13}{13}}}
\@writefile{nav}{\headcommand {\slideentry {3}{1}{2}{14/14}{Causality Relationship}{0}}}
\@writefile{nav}{\headcommand {\beamer@framepages {14}{14}}}
\@writefile{nav}{\headcommand {\slideentry {3}{1}{3}{15/20}{Causality Relationship}{0}}}
\@writefile{nav}{\headcommand {\beamer@framepages {15}{20}}}
\@writefile{toc}{\beamer@subsectionintoc {3}{2}{Direct Path}{21}{0}{3}}
\@writefile{nav}{\headcommand {\beamer@subsectionentry {0}{3}{2}{21}{Direct Path}}\headcommand {\beamer@subsectionpages {13}{20}}}
\@writefile{nav}{\headcommand {\slideentry {3}{2}{1}{21/21}{Direct Path}{0}}}
\@writefile{nav}{\headcommand {\beamer@framepages {21}{21}}}
\@writefile{nav}{\headcommand {\slideentry {3}{2}{2}{22/29}{Direct Path}{0}}}
\@writefile{nav}{\headcommand {\beamer@framepages {22}{29}}}
\@writefile{toc}{\beamer@sectionintoc {4}{Diagnosabilty of PN using structral sensitivity}{30}{0}{4}}
\@writefile{nav}{\headcommand {\sectionentry {4}{Diagnosabilty of PN using structral sensitivity}{30}{Diagnosabilty of PN using structral sensitivity}{0}}}
\@writefile{nav}{\headcommand {\beamer@sectionpages {11}{29}}}
\@writefile{nav}{\headcommand {\beamer@subsectionpages {21}{29}}}
\@writefile{nav}{\headcommand {\slideentry {4}{0}{3}{30/30}{}{0}}}
\@writefile{nav}{\headcommand {\beamer@framepages {30}{30}}}
\@writefile{toc}{\beamer@subsectionintoc {4}{1}{Influence and dependence area}{31}{0}{4}}
\@writefile{nav}{\headcommand {\beamer@subsectionentry {0}{4}{1}{31}{Influence and dependence area}}\headcommand {\beamer@subsectionpages {30}{30}}}
\@writefile{nav}{\headcommand {\slideentry {4}{1}{1}{31/31}{Influence and dependence area}{0}}}
\@writefile{nav}{\headcommand {\beamer@framepages {31}{31}}}
\@writefile{nav}{\headcommand {\slideentry {4}{1}{2}{32/32}{Influence and dependence area}{0}}}
\@writefile{nav}{\headcommand {\beamer@framepages {32}{32}}}
\@writefile{nav}{\headcommand {\slideentry {4}{1}{3}{33/33}{Influence and dependence area}{0}}}
\@writefile{nav}{\headcommand {\beamer@framepages {33}{33}}}
\@writefile{toc}{\beamer@subsectionintoc {4}{2}{Diagnosability based on $DP$ and $CR$}{34}{0}{4}}
\@writefile{nav}{\headcommand {\beamer@subsectionentry {0}{4}{2}{34}{Diagnosability based on $DP$ and $CR$}}\headcommand {\beamer@subsectionpages {31}{33}}}
\@writefile{toc}{\beamer@subsubsectionintoc {4}{2}{1}{Theory}{34}{0}{4}}
\@writefile{nav}{\headcommand {\beamer@subsubsectionentry {0}{4}{2}{1}{34}{Theory}}}
\@writefile{nav}{\headcommand {\slideentry {4}{2}{1}{34/34}{Diagnosability based on $DP$ and $CR$}{0}}}
\@writefile{nav}{\headcommand {\beamer@framepages {34}{34}}}
\@writefile{toc}{\beamer@subsubsectionintoc {4}{2}{2}{Application to the example}{35}{0}{4}}
\@writefile{nav}{\headcommand {\beamer@subsubsectionentry {0}{4}{2}{2}{35}{Application to the example}}}
\@writefile{nav}{\headcommand {\slideentry {4}{2}{2}{35/35}{Diagnosability based on $DP$ and $CR$}{0}}}
\@writefile{nav}{\headcommand {\beamer@framepages {35}{35}}}
\@writefile{nav}{\headcommand {\slideentry {4}{2}{3}{36/36}{Diagnosability based on $DP$ and $CR$}{0}}}
\@writefile{nav}{\headcommand {\beamer@framepages {36}{36}}}
\@writefile{toc}{\beamer@sectionintoc {5}{Conclusion}{37}{0}{5}}
\@writefile{nav}{\headcommand {\sectionentry {5}{Conclusion}{37}{Conclusion}{0}}}
\@writefile{nav}{\headcommand {\beamer@sectionpages {30}{36}}}
\@writefile{nav}{\headcommand {\beamer@subsectionpages {34}{36}}}
\@writefile{nav}{\headcommand {\slideentry {5}{0}{4}{37/37}{}{0}}}
\@writefile{nav}{\headcommand {\beamer@framepages {37}{37}}}
\@writefile{nav}{\headcommand {\slideentry {5}{0}{5}{38/38}{}{0}}}
\@writefile{nav}{\headcommand {\beamer@framepages {38}{38}}}
\@writefile{nav}{\headcommand {\beamer@partpages {1}{38}}}
\@writefile{nav}{\headcommand {\beamer@subsectionpages {37}{38}}}
\@writefile{nav}{\headcommand {\beamer@sectionpages {37}{38}}}
\@writefile{nav}{\headcommand {\beamer@documentpages {38}}}
\@writefile{nav}{\headcommand {\def \inserttotalframenumber {26}}}
